C:\Users\nidhi.si\eclipse-workspace\BigBasket\src\test\java\bigbasket\BigBasket\AppTest.java
C:\Users\nidhi.si\eclipse-workspace\BigBasket\src\test\java\bigbasket\BigBasket\Listener.java
C:\Users\nidhi.si\eclipse-workspace\BigBasket\src\test\java\bigbasket\BigBasket\HomeTest.java
